<?xml version="1.0" encoding="utf-8"?>
<!-- Generator: Adobe Illustrator 21.0.0, SVG Export Plug-In . SVG Version: 6.00 Build 0)  -->
<svg version="1.1" id="Capa_1" xmlns="http://www.w3.org/2000/svg" xmlns:xlink="http://www.w3.org/1999/xlink" x="0px" y="0px"
	 viewBox="0 0 65 65" style="enable-background:new 0 0 65 65;" xml:space="preserve">
<style type="text/css">
	.st0{fill:#848484;}
</style>
<path class="st0" d="M50.6,22.7h-2.2V16c0-8.9-7.1-16-15.9-16S16.6,7.1,16.6,15.9v6.7h-2.2c-4,0-7.3,3.3-7.3,7.3v27.7
	c0,4,3.3,7.3,7.3,7.3h36.2c4,0,7.3-3.3,7.3-7.3V30C57.9,25.9,54.6,22.7,50.6,22.7z M23.1,15.9c0-5.2,4.2-9.4,9.4-9.4
	s9.4,4.2,9.4,9.4v6.7H23.1V15.9z M23.4,48.1l-2.1,1.5l-2.4-3.3l-2.4,3.3l-2.1-1.5l2.4-3.3l-3.9-1.3l0.8-2.5l3.9,1.3v-4.1h2.6v4.1
	l3.9-1.3l0.8,2.5L21,44.8L23.4,48.1z M37,48.1l-2.1,1.5l-2.4-3.3l-2.4,3.3L28,48.1l2.4-3.3l-3.9-1.3l0.8-2.5l3.9,1.3v-4.1h2.6v4.1
	l3.9-1.3l0.8,2.5l-3.9,1.3L37,48.1z M48.2,44.8l2.4,3.3l-2.1,1.5l-2.4-3.3l-2.4,3.3l-2.1-1.5l2.4-3.3l-3.9-1.3l0.8-2.5l3.9,1.3v-4.1
	h2.6v4.1l3.9-1.3l0.8,2.5L48.2,44.8z"/>
</svg>
